…
``` r
logit_model %>% broom::glance()
```

    # A tibble: 1 x 7
      null.deviance df.null logLik   AIC   BIC deviance df.residual
              <dbl>   <int>  <dbl> <dbl> <dbl>    <dbl>       <int>
    1          831.    1968  -211.  435.  474.     421.        1962

``` r
logit_model %>% broom::augment()
```

    # A tibble: 1,969 x 14
        csod eszkfseb100 stokear100 bonitas100 jovedelm100 feszkar100 likvid100
       <dbl>       <dbl>      <dbl>      <dbl>       <dbl>      <dbl>     <dbl>
     1     0       29.6        99.9      0.124       15.2        9.98      9.85
     2     0      126.         98.9      1.11       -22.7      100        98.9 
     3     0      219.         99.8      0.158       32.2       88.7      88.5 
     4     0        6.09       57.9     72.7         -5.48       1.24      1.07
     5     0        4.59       16.3    512.          -2.62      92.8      92.8 
     6     0       43.6        99.6      0.368        1.59     100        99.6 
     7     0       13.7        99.7      0.261        3.62     100        99.7 
     8     0       47.4        99.9      0.121      -11.4       98.4      98.3 
     9     0       85.7        92        8.70        34.9      100        92   
    10     0      606.         98.4      1.58        20.5      100        98.4 
    # ... with 1,959 more rows, and 7 more variables: .fitted <dbl>, .se.fit <dbl>,
    #   .resid <dbl>, .hat <dbl>, .sigma <dbl>, .cooksd <dbl>, .std.resid <dbl>
…
